DSA2101 Group Project
…
## [1] 277  14

dim(distinct(individuals_clean, animal_id, .keep_all = TRUE))

## [1] 260  14

individuals_clean %>%
  group_by(animal_id) %>%
  filter(n()>1) %>%
  arrange(animal_id, .by_group = TRUE) %>%
  summarise(animal_id, deploy_on_comments, deploy_off_comments)

## # A tibble: 32 x 3
## # Groups:   animal_id [15]
##    animal_id deploy_on_comments                                 deploy_off_comm~
##    <chr>     <chr>                                              <chr>           
##  1 HR_car016 General capture location.                          Recovered non-w~
##  2 HR_car016 Recovered non-working green GPS collar. Cow very ~ <NA>            
##  3 HR_car019 General capture location.                          <NA>            
##  4 HR_car019 Captured cow and calf in net. Didn't do backfat s~ <NA>            
##  5 KE_car011 General capture location.                          Recovered faile~
##  6 KE_car011 Replacement for failed GPS collar 151.871.         <NA>            
##  7 KE_car155 <NA>                                               <NA>            
##  8 KE_car155 <NA>                                               Infometrics     
##  9 KE_car156 <NA>                                               <NA>            
## 10 KE_car156 <NA>                                               the tag remaine~
## # ... with 22 more rows
…
